{"uuid":"04f03679-3e10-44a8-912b-15747b961a26","historyId":"f8d7200eb0417ee46832269b4c542f73:483ec23660f592decbe63698f54f1a47","status":"passed","statusDetails":{},"stage":"pending","steps":[{"status":"passed","statusDetails":{},"stage":"pending","steps":[{"status":"passed","statusDetails":{},"stage":"pending","steps":[{"status":"passed","statusDetails":{},"stage":"pending","steps":[],"attachments":[],"parameters":[],"start":1763239525300,"name":"Create request context","stop":1763239525304}],"attachments":[],"parameters":[],"start":1763239525294,"name":"Fixture \"request\"","stop":1763239525306}],"attachments":[],"parameters":[],"start":1763239525292,"name":"Before Hooks","stop":1763239525306},{"status":"passed","statusDetails":{},"stage":"pending","steps":[],"attachments":[],"parameters":[],"start":1763239525310,"name":"GET \"/api/users?page=2\"","stop":1763239525880},{"status":"passed","statusDetails":{},"stage":"pending","steps":[],"attachments":[],"parameters":[],"start":1763239525886,"name":"status=200 body={\"page\":2,\"per_page\":6,\"total\":12,\"total_pages\":2,\"data\":[{\"id\":7,\"email\":\"michael.lawson@reqres.in\",\"first_name\":\"Michael\",\"last_name\":\"Lawson\",\"avatar\":\"https://reqres.in/img/faces/7-image.jpg\"},{\"id\":8,\"email\":\"lindsay.ferguson@reqres.in\",\"first_name\":\"Lindsay\",\"last_name\":\"Ferguson\",\"avatar\":\"https://reqres.in/img/faces/8-image.jpg\"},{\"id\":9,\"email\":\"tobias.funke@reqres.in\",\"first_name\":\"Tobias\",\"last_name\":\"Funke\",\"avatar\":\"https://reqres.in/img/faces/9-image.jpg\"},{\"id\":10,\"email\":\"byron.fields@reqres.in\",\"first_name\":\"Byron\",\"last_name\":\"Fields\",\"avatar\":\"https://reqres.in/img/faces/10-image.jpg\"},{\"id\":11,\"email\":\"george.edwards@reqres.in\",\"first_name\":\"George\",\"last_name\":\"Edwards\",\"avatar\":\"https://reqres.in/img/faces/11-image.jpg\"},{\"id\":12,\"email\":\"rachel.howell@reqres.in\",\"first_name\":\"Rachel\",\"last_name\":\"Howell\",\"avatar\":\"https://reqres.in/img/faces/12-image.jpg\"}],\"support\":{\"url\":\"https://contentcaddy.io?utm_source=reqres&utm_medium=json&utm_campaign=referral\",\"text\":\"Tired of writing endless social media content? Let Content Caddy generate it for you.\"},\"_meta\":{\"powered_by\":\"🚀 ReqRes - Deploy backends in 30 seconds\",\"upgrade_url\":\"https://app.reqres.in/upgrade\",\"docs_url\":\"https://reqres.in\",\"template_gallery\":\"https://app.reqres.in/templates\",\"message\":\"This API is powered by ReqRes. Deploy your own backend in 30 seconds!\",\"features\":[\"30 Second Backend Templates\",\"Custom API Endpoints\",\"Data Persistence\",\"Real-time Analytics\"],\"upgrade_cta\":\"Upgrade to Pro for unlimited requests, custom endpoints, and data persistence\"}}","stop":1763239525887},{"status":"passed","statusDetails":{},"stage":"pending","steps":[{"status":"passed","statusDetails":{},"stage":"pending","steps":[],"attachments":[],"parameters":[],"start":1763239525895,"name":"Fixture \"request\"","stop":1763239525898}],"attachments":[],"parameters":[],"start":1763239525895,"name":"After Hooks","stop":1763239525914}],"attachments":[{"name":"stdout","type":"text/plain","source":"5b7187b0-cade-4429-8d57-b5ab57fd240b-attachment.txt"}],"parameters":[{"name":"Project","value":"Chromium"}],"labels":[{"name":"language","value":"JavaScript"},{"name":"framework","value":"Playwright"},{"name":"titlePath","value":" > Chromium > api\\scenario1.list-users.spec.ts"},{"name":"host","value":"DESKTOP-HFR37EM"},{"name":"thread","value":"DESKTOP-HFR37EM-23232-playwright-worker-0"},{"name":"parentSuite","value":"Chromium"}],"links":[],"start":1763239525281,"name":"API: list users and print odd IDs","fullName":"api/scenario1.list-users.spec.ts#API: list users and print odd IDs","testCaseId":"f8d7200eb0417ee46832269b4c542f73","stop":1763239525917}