{"uuid":"4eea3a75-d694-4c94-b5ab-665dbaa9116c","historyId":"e457df2895b58469aa30cba9bd34f515:483ec23660f592decbe63698f54f1a47","status":"passed","statusDetails":{},"stage":"pending","steps":[{"status":"passed","statusDetails":{},"stage":"pending","steps":[{"status":"passed","statusDetails":{},"stage":"pending","steps":[{"status":"passed","statusDetails":{},"stage":"pending","steps":[],"attachments":[],"parameters":[],"start":1763239525934,"name":"Create request context","stop":1763239525946}],"attachments":[],"parameters":[],"start":1763239525933,"name":"Fixture \"request\"","stop":1763239525946}],"attachments":[],"parameters":[],"start":1763239525922,"name":"Before Hooks","stop":1763239525946},{"status":"passed","statusDetails":{},"stage":"pending","steps":[],"attachments":[],"parameters":[],"start":1763239525947,"name":"GET \"/api/users?delay=3\"","stop":1763239529126},{"status":"passed","statusDetails":{},"stage":"pending","steps":[],"attachments":[],"parameters":[],"start":1763239529129,"name":"status=200 body={\"page\":1,\"per_page\":6,\"total\":12,\"total_pages\":2,\"data\":[{\"id\":1,\"email\":\"george.bluth@reqres.in\",\"first_name\":\"George\",\"last_name\":\"Bluth\",\"avatar\":\"https://reqres.in/img/faces/1-image.jpg\"},{\"id\":2,\"email\":\"janet.weaver@reqres.in\",\"first_name\":\"Janet\",\"last_name\":\"Weaver\",\"avatar\":\"https://reqres.in/img/faces/2-image.jpg\"},{\"id\":3,\"email\":\"emma.wong@reqres.in\",\"first_name\":\"Emma\",\"last_name\":\"Wong\",\"avatar\":\"https://reqres.in/img/faces/3-image.jpg\"},{\"id\":4,\"email\":\"eve.holt@reqres.in\",\"first_name\":\"Eve\",\"last_name\":\"Holt\",\"avatar\":\"https://reqres.in/img/faces/4-image.jpg\"},{\"id\":5,\"email\":\"charles.morris@reqres.in\",\"first_name\":\"Charles\",\"last_name\":\"Morris\",\"avatar\":\"https://reqres.in/img/faces/5-image.jpg\"},{\"id\":6,\"email\":\"tracey.ramos@reqres.in\",\"first_name\":\"Tracey\",\"last_name\":\"Ramos\",\"avatar\":\"https://reqres.in/img/faces/6-image.jpg\"}],\"support\":{\"url\":\"https://contentcaddy.io?utm_source=reqres&utm_medium=json&utm_campaign=referral\",\"text\":\"Tired of writing endless social media content? Let Content Caddy generate it for you.\"},\"_meta\":{\"powered_by\":\"🚀 ReqRes - Deploy backends in 30 seconds\",\"upgrade_url\":\"https://app.reqres.in/upgrade\",\"docs_url\":\"https://reqres.in\",\"template_gallery\":\"https://app.reqres.in/templates\",\"message\":\"This API is powered by ReqRes. Deploy your own backend in 30 seconds!\",\"features\":[\"30 Second Backend Templates\",\"Custom API Endpoints\",\"Data Persistence\",\"Real-time Analytics\"],\"upgrade_cta\":\"Upgrade to Pro for unlimited requests, custom endpoints, and data persistence\"}}","stop":1763239529129},{"status":"passed","statusDetails":{},"stage":"pending","steps":[],"attachments":[],"parameters":[],"start":1763239529131,"name":"Expect \"toBeGreaterThan\"","stop":1763239529131},{"status":"passed","statusDetails":{},"stage":"pending","steps":[{"status":"passed","statusDetails":{},"stage":"pending","steps":[],"attachments":[],"parameters":[],"start":1763239529132,"name":"Fixture \"request\"","stop":1763239529136}],"attachments":[],"parameters":[],"start":1763239529131,"name":"After Hooks","stop":1763239529146}],"attachments":[],"parameters":[{"name":"Project","value":"Chromium"}],"labels":[{"name":"language","value":"JavaScript"},{"name":"framework","value":"Playwright"},{"name":"titlePath","value":" > Chromium > api\\scenario4.delay-param.spec.ts"},{"name":"host","value":"DESKTOP-HFR37EM"},{"name":"thread","value":"DESKTOP-HFR37EM-23232-playwright-worker-3"},{"name":"parentSuite","value":"Chromium"}],"links":[],"start":1763239525921,"name":"API: list users with delay=3","fullName":"api/scenario4.delay-param.spec.ts#API: list users with delay=3","testCaseId":"e457df2895b58469aa30cba9bd34f515","stop":1763239529147}