{"uuid":"fbc7a9ce-4699-40db-9bad-08b370ee6760","historyId":"bcca2f5bfdb2ffc8d086e6fc7a47788a:483ec23660f592decbe63698f54f1a47","status":"passed","statusDetails":{},"stage":"pending","steps":[{"status":"passed","statusDetails":{},"stage":"pending","steps":[{"status":"passed","statusDetails":{},"stage":"pending","steps":[{"status":"passed","statusDetails":{},"stage":"pending","steps":[],"attachments":[],"parameters":[],"start":1763239525299,"name":"Create request context","stop":1763239525305}],"attachments":[],"parameters":[],"start":1763239525293,"name":"Fixture \"request\"","stop":1763239525306}],"attachments":[],"parameters":[],"start":1763239525292,"name":"Before Hooks","stop":1763239525306},{"status":"passed","statusDetails":{},"stage":"pending","steps":[],"attachments":[],"parameters":[],"start":1763239525311,"name":"GET \"/api/users?delay=0\"","stop":1763239525879},{"status":"passed","statusDetails":{},"stage":"pending","steps":[],"attachments":[],"parameters":[],"start":1763239525883,"name":"status=200 body={\"page\":1,\"per_page\":6,\"total\":12,\"total_pages\":2,\"data\":[{\"id\":1,\"email\":\"george.bluth@reqres.in\",\"first_name\":\"George\",\"last_name\":\"Bluth\",\"avatar\":\"https://reqres.in/img/faces/1-image.jpg\"},{\"id\":2,\"email\":\"janet.weaver@reqres.in\",\"first_name\":\"Janet\",\"last_name\":\"Weaver\",\"avatar\":\"https://reqres.in/img/faces/2-image.jpg\"},{\"id\":3,\"email\":\"emma.wong@reqres.in\",\"first_name\":\"Emma\",\"last_name\":\"Wong\",\"avatar\":\"https://reqres.in/img/faces/3-image.jpg\"},{\"id\":4,\"email\":\"eve.holt@reqres.in\",\"first_name\":\"Eve\",\"last_name\":\"Holt\",\"avatar\":\"https://reqres.in/img/faces/4-image.jpg\"},{\"id\":5,\"email\":\"charles.morris@reqres.in\",\"first_name\":\"Charles\",\"last_name\":\"Morris\",\"avatar\":\"https://reqres.in/img/faces/5-image.jpg\"},{\"id\":6,\"email\":\"tracey.ramos@reqres.in\",\"first_name\":\"Tracey\",\"last_name\":\"Ramos\",\"avatar\":\"https://reqres.in/img/faces/6-image.jpg\"}],\"support\":{\"url\":\"https://contentcaddy.io?utm_source=reqres&utm_medium=json&utm_campaign=referral\",\"text\":\"Tired of writing endless social media content? Let Content Caddy generate it for you.\"},\"_meta\":{\"powered_by\":\"🚀 ReqRes - Deploy backends in 30 seconds\",\"upgrade_url\":\"https://app.reqres.in/upgrade\",\"docs_url\":\"https://reqres.in\",\"template_gallery\":\"https://app.reqres.in/templates\",\"message\":\"This API is powered by ReqRes. Deploy your own backend in 30 seconds!\",\"features\":[\"30 Second Backend Templates\",\"Custom API Endpoints\",\"Data Persistence\",\"Real-time Analytics\"],\"upgrade_cta\":\"Upgrade to Pro for unlimited requests, custom endpoints, and data persistence\"}}","stop":1763239525884},{"status":"passed","statusDetails":{},"stage":"pending","steps":[],"attachments":[],"parameters":[],"start":1763239525885,"name":"Expect \"toBeLessThanOrEqual\"","stop":1763239525886},{"status":"passed","statusDetails":{},"stage":"pending","steps":[{"status":"passed","statusDetails":{},"stage":"pending","steps":[],"attachments":[],"parameters":[],"start":1763239525889,"name":"Fixture \"request\"","stop":1763239525895}],"attachments":[],"parameters":[],"start":1763239525887,"name":"After Hooks","stop":1763239525911}],"attachments":[],"parameters":[{"name":"Project","value":"Chromium"}],"labels":[{"name":"language","value":"JavaScript"},{"name":"framework","value":"Playwright"},{"name":"titlePath","value":" > Chromium > api\\scenario4.delay-param.spec.ts"},{"name":"host","value":"DESKTOP-HFR37EM"},{"name":"thread","value":"DESKTOP-HFR37EM-23232-playwright-worker-3"},{"name":"parentSuite","value":"Chromium"}],"links":[],"start":1763239525291,"name":"API: list users with delay=0","fullName":"api/scenario4.delay-param.spec.ts#API: list users with delay=0","testCaseId":"bcca2f5bfdb2ffc8d086e6fc7a47788a","stop":1763239525913}