{"uid":"6a5616b5497d89cb","name":"API: list users and print odd IDs","fullName":"api/scenario1.list-users.spec.ts#API: list users and print odd IDs","historyId":"f8d7200eb0417ee46832269b4c542f73:483ec23660f592decbe63698f54f1a47","time":{"start":1763239525281,"stop":1763239525917,"duration":636},"status":"passed","flaky":false,"newFailed":false,"newBroken":false,"newPassed":false,"retriesCount":0,"retriesStatusChange":false,"beforeStages":[],"testStage":{"status":"passed","steps":[{"name":"Before Hooks","time":{"start":1763239525292,"stop":1763239525306,"duration":14},"status":"passed","steps":[{"name":"Fixture \"request\"","time":{"start":1763239525294,"stop":1763239525306,"duration":12},"status":"passed","steps":[{"name":"Create request context","time":{"start":1763239525300,"stop":1763239525304,"duration":4},"status":"passed","steps":[],"attachments":[],"parameters":[],"hasContent":false,"attachmentsCount":0,"shouldDisplayMessage":false,"stepsCount":0,"attachmentStep":false}],"attachments":[],"parameters":[],"hasContent":true,"attachmentsCount":0,"shouldDisplayMessage":false,"stepsCount":1,"attachmentStep":false}],"attachments":[],"parameters":[],"hasContent":true,"attachmentsCount":0,"shouldDisplayMessage":false,"stepsCount":2,"attachmentStep":false},{"name":"GET \"/api/users?page=2\"","time":{"start":1763239525310,"stop":1763239525880,"duration":570},"status":"passed","steps":[],"attachments":[],"parameters":[],"hasContent":false,"attachmentsCount":0,"shouldDisplayMessage":false,"stepsCount":0,"attachmentStep":false},{"name":"status=200 body={\"page\":2,\"per_page\":6,\"total\":12,\"total_pages\":2,\"data\":[{\"id\":7,\"email\":\"michael.lawson@reqres.in\",\"first_name\":\"Michael\",\"last_name\":\"Lawson\",\"avatar\":\"https://reqres.in/img/faces/7-image.jpg\"},{\"id\":8,\"email\":\"lindsay.ferguson@reqres.in\",\"first_name\":\"Lindsay\",\"last_name\":\"Ferguson\",\"avatar\":\"https://reqres.in/img/faces/8-image.jpg\"},{\"id\":9,\"email\":\"tobias.funke@reqres.in\",\"first_name\":\"Tobias\",\"last_name\":\"Funke\",\"avatar\":\"https://reqres.in/img/faces/9-image.jpg\"},{\"id\":10,\"email\":\"byron.fields@reqres.in\",\"first_name\":\"Byron\",\"last_name\":\"Fields\",\"avatar\":\"https://reqres.in/img/faces/10-image.jpg\"},{\"id\":11,\"email\":\"george.edwards@reqres.in\",\"first_name\":\"George\",\"last_name\":\"Edwards\",\"avatar\":\"https://reqres.in/img/faces/11-image.jpg\"},{\"id\":12,\"email\":\"rachel.howell@reqres.in\",\"first_name\":\"Rachel\",\"last_name\":\"Howell\",\"avatar\":\"https://reqres.in/img/faces/12-image.jpg\"}],\"support\":{\"url\":\"https://contentcaddy.io?utm_source=reqres&utm_medium=json&utm_campaign=referral\",\"text\":\"Tired of writing endless social media content? Let Content Caddy generate it for you.\"},\"_meta\":{\"powered_by\":\"\uD83D\uDE80 ReqRes - Deploy backends in 30 seconds\",\"upgrade_url\":\"https://app.reqres.in/upgrade\",\"docs_url\":\"https://reqres.in\",\"template_gallery\":\"https://app.reqres.in/templates\",\"message\":\"This API is powered by ReqRes. Deploy your own backend in 30 seconds!\",\"features\":[\"30 Second Backend Templates\",\"Custom API Endpoints\",\"Data Persistence\",\"Real-time Analytics\"],\"upgrade_cta\":\"Upgrade to Pro for unlimited requests, custom endpoints, and data persistence\"}}","time":{"start":1763239525886,"stop":1763239525887,"duration":1},"status":"passed","steps":[],"attachments":[],"parameters":[],"hasContent":false,"attachmentsCount":0,"shouldDisplayMessage":false,"stepsCount":0,"attachmentStep":false},{"name":"After Hooks","time":{"start":1763239525895,"stop":1763239525914,"duration":19},"status":"passed","steps":[{"name":"Fixture \"request\"","time":{"start":1763239525895,"stop":1763239525898,"duration":3},"status":"passed","steps":[],"attachments":[],"parameters":[],"hasContent":false,"attachmentsCount":0,"shouldDisplayMessage":false,"stepsCount":0,"attachmentStep":false}],"attachments":[],"parameters":[],"hasContent":true,"attachmentsCount":0,"shouldDisplayMessage":false,"stepsCount":1,"attachmentStep":false}],"attachments":[{"uid":"f40a5c02e5007957","name":"stdout","source":"f40a5c02e5007957.txt","type":"text/plain","size":160}],"parameters":[],"hasContent":true,"attachmentsCount":1,"shouldDisplayMessage":false,"stepsCount":7,"attachmentStep":false},"afterStages":[],"labels":[{"name":"language","value":"JavaScript"},{"name":"framework","value":"Playwright"},{"name":"titlePath","value":" > Chromium > api\\scenario1.list-users.spec.ts"},{"name":"host","value":"DESKTOP-HFR37EM"},{"name":"thread","value":"DESKTOP-HFR37EM-23232-playwright-worker-0"},{"name":"parentSuite","value":"Chromium"},{"name":"resultFormat","value":"allure2"}],"parameters":[{"name":"Project","value":"Chromium"}],"links":[],"hidden":false,"retry":false,"extra":{"severity":"normal","retries":[],"categories":[],"tags":[]},"source":"6a5616b5497d89cb.json","parameterValues":["Chromium"]}