{"uid":"c40a7195eeb84378","name":"API: list users with delay=0","fullName":"api/scenario4.delay-param.spec.ts#API: list users with delay=0","historyId":"bcca2f5bfdb2ffc8d086e6fc7a47788a:483ec23660f592decbe63698f54f1a47","time":{"start":1763239525291,"stop":1763239525913,"duration":622},"status":"passed","flaky":false,"newFailed":false,"newBroken":false,"newPassed":false,"retriesCount":0,"retriesStatusChange":false,"beforeStages":[],"testStage":{"status":"passed","steps":[{"name":"Before Hooks","time":{"start":1763239525292,"stop":1763239525306,"duration":14},"status":"passed","steps":[{"name":"Fixture \"request\"","time":{"start":1763239525293,"stop":1763239525306,"duration":13},"status":"passed","steps":[{"name":"Create request context","time":{"start":1763239525299,"stop":1763239525305,"duration":6},"status":"passed","steps":[],"attachments":[],"parameters":[],"hasContent":false,"attachmentsCount":0,"shouldDisplayMessage":false,"stepsCount":0,"attachmentStep":false}],"attachments":[],"parameters":[],"hasContent":true,"attachmentsCount":0,"shouldDisplayMessage":false,"stepsCount":1,"attachmentStep":false}],"attachments":[],"parameters":[],"hasContent":true,"attachmentsCount":0,"shouldDisplayMessage":false,"stepsCount":2,"attachmentStep":false},{"name":"GET \"/api/users?delay=0\"","time":{"start":1763239525311,"stop":1763239525879,"duration":568},"status":"passed","steps":[],"attachments":[],"parameters":[],"hasContent":false,"attachmentsCount":0,"shouldDisplayMessage":false,"stepsCount":0,"attachmentStep":false},{"name":"status=200 body={\"page\":1,\"per_page\":6,\"total\":12,\"total_pages\":2,\"data\":[{\"id\":1,\"email\":\"george.bluth@reqres.in\",\"first_name\":\"George\",\"last_name\":\"Bluth\",\"avatar\":\"https://reqres.in/img/faces/1-image.jpg\"},{\"id\":2,\"email\":\"janet.weaver@reqres.in\",\"first_name\":\"Janet\",\"last_name\":\"Weaver\",\"avatar\":\"https://reqres.in/img/faces/2-image.jpg\"},{\"id\":3,\"email\":\"emma.wong@reqres.in\",\"first_name\":\"Emma\",\"last_name\":\"Wong\",\"avatar\":\"https://reqres.in/img/faces/3-image.jpg\"},{\"id\":4,\"email\":\"eve.holt@reqres.in\",\"first_name\":\"Eve\",\"last_name\":\"Holt\",\"avatar\":\"https://reqres.in/img/faces/4-image.jpg\"},{\"id\":5,\"email\":\"charles.morris@reqres.in\",\"first_name\":\"Charles\",\"last_name\":\"Morris\",\"avatar\":\"https://reqres.in/img/faces/5-image.jpg\"},{\"id\":6,\"email\":\"tracey.ramos@reqres.in\",\"first_name\":\"Tracey\",\"last_name\":\"Ramos\",\"avatar\":\"https://reqres.in/img/faces/6-image.jpg\"}],\"support\":{\"url\":\"https://contentcaddy.io?utm_source=reqres&utm_medium=json&utm_campaign=referral\",\"text\":\"Tired of writing endless social media content? Let Content Caddy generate it for you.\"},\"_meta\":{\"powered_by\":\"\uD83D\uDE80 ReqRes - Deploy backends in 30 seconds\",\"upgrade_url\":\"https://app.reqres.in/upgrade\",\"docs_url\":\"https://reqres.in\",\"template_gallery\":\"https://app.reqres.in/templates\",\"message\":\"This API is powered by ReqRes. Deploy your own backend in 30 seconds!\",\"features\":[\"30 Second Backend Templates\",\"Custom API Endpoints\",\"Data Persistence\",\"Real-time Analytics\"],\"upgrade_cta\":\"Upgrade to Pro for unlimited requests, custom endpoints, and data persistence\"}}","time":{"start":1763239525883,"stop":1763239525884,"duration":1},"status":"passed","steps":[],"attachments":[],"parameters":[],"hasContent":false,"attachmentsCount":0,"shouldDisplayMessage":false,"stepsCount":0,"attachmentStep":false},{"name":"Expect \"toBeLessThanOrEqual\"","time":{"start":1763239525885,"stop":1763239525886,"duration":1},"status":"passed","steps":[],"attachments":[],"parameters":[],"hasContent":false,"attachmentsCount":0,"shouldDisplayMessage":false,"stepsCount":0,"attachmentStep":false},{"name":"After Hooks","time":{"start":1763239525887,"stop":1763239525911,"duration":24},"status":"passed","steps":[{"name":"Fixture \"request\"","time":{"start":1763239525889,"stop":1763239525895,"duration":6},"status":"passed","steps":[],"attachments":[],"parameters":[],"hasContent":false,"attachmentsCount":0,"shouldDisplayMessage":false,"stepsCount":0,"attachmentStep":false}],"attachments":[],"parameters":[],"hasContent":true,"attachmentsCount":0,"shouldDisplayMessage":false,"stepsCount":1,"attachmentStep":false}],"attachments":[],"parameters":[],"hasContent":true,"attachmentsCount":0,"shouldDisplayMessage":false,"stepsCount":8,"attachmentStep":false},"afterStages":[],"labels":[{"name":"language","value":"JavaScript"},{"name":"framework","value":"Playwright"},{"name":"titlePath","value":" > Chromium > api\\scenario4.delay-param.spec.ts"},{"name":"host","value":"DESKTOP-HFR37EM"},{"name":"thread","value":"DESKTOP-HFR37EM-23232-playwright-worker-3"},{"name":"parentSuite","value":"Chromium"},{"name":"resultFormat","value":"allure2"}],"parameters":[{"name":"Project","value":"Chromium"}],"links":[],"hidden":false,"retry":false,"extra":{"severity":"normal","retries":[],"categories":[],"tags":[]},"source":"c40a7195eeb84378.json","parameterValues":["Chromium"]}